sim/tests/basic/streamwave.vcd
$date
	Wed Mar 12 01:25:43 2025
$end
$version
	Icarus Verilog
$end
$timescale
	1ps
$end
$scope module userlogic_test $end
$var wire 32 ! ul_instr_addr [31:0] $end
$var wire 32 " ul_test [31:0] $end
$var wire 4 # ul_write_en [3:0] $end
$var wire 32 $ ul_write_data [31:0] $end
$var wire 64 % ul_write_addr [63:0] $end
$var wire 32 & ul_status [31:0] $end
$var wire 32 ' ul_read_data [31:0] $end
$var wire 64 ( ul_read_addr [63:0] $end
$var wire 32 ) ul_instr [31:0] $end
$var wire 64 * intermediate_read_data [63:0] $end
$var wire 32 + data_out [31:0] $end
$var reg 1 , clk $end
$var reg 32 - cycle_count [32:1] $end
$var reg 8192 . dump_vars_filename [8192:1] $end
$var reg 10 / image_n_columns [9:0] $end
$var reg 10 0 image_n_rows [9:0] $end
$var reg 8192 1 input_buffer_filename [8192:1] $end
$var reg 8192 2 instr_mem_filename [8192:1] $end
$var reg 32 3 num_cycles [32:1] $end
$var reg 33 4 out_end_addr [32:0] $end
$var reg 33 5 out_start_addr [32:0] $end
$var reg 8192 6 output_buffer_filename [8192:1] $end
$var reg 15 7 read_addr [14:0] $end
$var reg 1 8 rst_n $end
$var reg 8192 9 test_result_filename [8192:1] $end
$var reg 32 : ul_command [31:0] $end
$var integer 32 ; dump_vars [31:0] $end
$var integer 32 < i [31:0] $end
$var integer 32 = outfile [31:0] $end
$var integer 32 > read_input_buffer [31:0] $end
$var integer 32 ? read_instr_mem [31:0] $end
$var integer 32 @ result [31:0] $end
$var integer 32 A write_output_buffer [31:0] $end
$var integer 32 B write_test_result [31:0] $end
$scope begin data_out_gen[0] $end
$scope begin genblk6 $end
$upscope $end
$upscope $end
$scope begin data_out_gen[1] $end
$scope begin genblk6 $end
$upscope $end
$upscope $end
$scope begin input_buffer_gen[0] $end
$var wire 15 C adjusted_ul_read_addr [14:0] $end
$scope module input_buffer $end
$var wire 15 D addr [14:0] $end
$var wire 1 , clk $end
$var wire 32 E din [31:0] $end
$var wire 1 F we $end
$var reg 32 G dout [31:0] $end
$upscope $end
$upscope $end
$scope begin input_buffer_gen[1] $end
$var wire 15 H adjusted_ul_read_addr [14:0] $end
$scope module input_buffer $end
$var wire 15 I addr [14:0] $end
$var wire 1 , clk $end
$var wire 32 J din [31:0] $end
$var wire 1 K we $end
$var reg 32 L dout [31:0] $end
$upscope $end
$upscope $end
$scope begin output_buffer_gen[0] $end
$scope begin genblk3 $end
$upscope $end
$scope module output_buffer $end
$var wire 15 M addr [14:0] $end
$var wire 1 , clk $end
$var wire 16 N din [15:0] $end
$var wire 2 O we [1:0] $end
$var reg 16 P dout [15:0] $end
$scope begin column[0] $end
$upscope $end
$scope begin column[1] $end
$upscope $end
$upscope $end
$upscope $end
$scope begin output_buffer_gen[1] $end
$scope begin genblk3 $end
$upscope $end
$scope module output_buffer $end
$var wire 15 Q addr [14:0] $end
$var wire 1 , clk $end
$var wire 16 R din [15:0] $end
$var wire 2 S we [1:0] $end
$var reg 16 T dout [15:0] $end
$scope begin column[0] $end
$upscope $end
$scope begin column[1] $end
$upscope $end
$upscope $end
$upscope $end
$scope module instr_mem $end
$var wire 16 U addr [15:0] $end
$var wire 1 , clk $end
$var wire 32 V din [31:0] $end
$var wire 1 W we $end
$var reg 32 X dout [31:0] $end
$upscope $end
$scope module ul $end
$var wire 1 , clk $end
$var wire 32 Y command [31:0] $end
$var wire 32 Z instr [31:0] $end
$var wire 32 [ instr_addr [31:0] $end
$var wire 32 \ read_data [31:0] $end
$var wire 1 8 rst_n $end
$var wire 1 ] sobel_reset $end
$var wire 32 ^ test [31:0] $end
$var wire 4 _ write_en [3:0] $end
$var wire 32 ` write_data [31:0] $end
$var wire 64 a write_addr [63:0] $end
$var wire 32 b status [31:0] $end
$var wire 10 c sobel_image_n_rows [9:0] $end
$var wire 10 d sobel_image_n_cols [9:0] $end
$var wire 1 e sobel_go $end
$var wire 64 f read_addr [63:0] $end
$scope module go_r $end
$var wire 1 , clk $end
$var wire 1 g d $end
$var wire 1 ] r $end
$var reg 1 e q $end
$upscope $end
$scope module sobel $end
$var wire 1 , clk $end
$var wire 1 e go $end
$var wire 32 h mem2stop_read_data [31:0] $end
$var wire 10 i pipe2stop_image_n_cols [9:0] $end
$var wire 10 j pipe2stop_image_n_rows [9:0] $end
$var wire 1 ] reset $end
$var wire 32 k stop2pipe_status [31:0] $end
$var wire 4 l stop2mem_write_en [3:0] $end
$var wire 32 m stop2mem_write_data [31:0] $end
$var wire 64 n stop2mem_write_addr [63:0] $end
$var wire 64 o stop2mem_read_addr [63:0] $end
$var wire 32 p srt2srow_read_data [31:0] $end
$var wire 32 q srow2sacc_row3_data [31:0] $end
$var wire 32 r srow2sacc_row2_data [31:0] $end
$var wire 32 s srow2sacc_row1_data [31:0] $end
$var wire 2 t sctl2swt_write_en [1:0] $end
$var wire 32 u sctl2swt_write_addr [31:0] $end
$var wire 32 v sctl2srt_read_addr [31:0] $end
$var wire 2 w sctl2srow_row_op [1:0] $end
$var wire 16 x sacc2swt_write_data [15:0] $end
$scope module accelerator $end
$var wire 32 y row1 [31:0] $end
$var wire 32 z row2 [31:0] $end
$var wire 32 { row3 [31:0] $end
$var wire 32 | srow2sacc_row3_data [31:0] $end
$var wire 32 } srow2sacc_row2_data [31:0] $end
$var wire 32 ~ srow2sacc_row1_data [31:0] $end
$var wire 16 !" sacc2swt_write_data [15:0] $end
$var reg 16 "" sobel_out [15:0] $end
$scope begin convolve[0] $end
$upscope $end
$scope begin convolve[1] $end
$upscope $end
$upscope $end
$scope module control $end
$var wire 10 #" buf_write_row_incr [9:0] $end
$var wire 1 , clk $end
$var wire 1 e go $end
$var wire 10 $" max_col_strip [9:0] $end
$var wire 10 %" next_col_strip [9:0] $end
$var wire 1 ] reset $end
$var wire 2 &" sctl2srow_row_op [1:0] $end
$var wire 32 '" sctl2srt_read_addr [31:0] $end
$var wire 32 (" sctl2swt_write_addr [31:0] $end
$var wire 10 )" stop2sctl_image_n_cols [9:0] $end
$var wire 10 *" stop2sctl_image_n_rows [9:0] $end
$var wire 4 +" state [3:0] $end
$var wire 2 ," sctl2swt_write_en [1:0] $end
$var wire 32 -" sctl2stop_status [31:0] $end
$var wire 10 ." row_counter [9:0] $end
$var wire 2 /" pixel_write_en [1:0] $end
$var wire 10 0" control_n_rows [9:0] $end
$var wire 10 1" control_n_cols [9:0] $end
$var wire 10 2" col_strip [9:0] $end
$var wire 32 3" buf_write_offset [31:0] $end
$var wire 32 4" buf_read_offset [31:0] $end
$var reg 32 5" buf_read_offset_next [31:0] $end
$var reg 1 6" buf_write_en $end
$var reg 32 7" buf_write_offset_next [31:0] $end
$var reg 10 8" col_strip_next [9:0] $end
$var reg 10 9" row_counter_next [9:0] $end
$var reg 2 :" row_op [1:0] $end
$var reg 4 ;" state_next [3:0] $end
$scope begin sobel_write_en[0] $end
$upscope $end
$scope begin sobel_write_en[1] $end
$upscope $end
$scope module buf_read_offset_r $end
$var wire 1 , clk $end
$var wire 32 <" d [31:0] $end
$var wire 1 e en $end
$var wire 1 ] r $end
$var reg 32 =" q [31:0] $end
$upscope $end
$scope module buf_write_offset_r $end
$var wire 1 , clk $end
$var wire 32 >" d [31:0] $end
$var wire 1 e en $end
$var wire 1 ] r $end
$var reg 32 ?" q [31:0] $end
$upscope $end
$scope module col_strip_r $end
$var wire 1 , clk $end
$var wire 10 @" d [9:0] $end
$var wire 1 e en $end
$var wire 1 ] r $end
$var reg 10 A" q [9:0] $end
$upscope $end
$scope module control_n_cols_r $end
$var wire 1 , clk $end
$var wire 10 B" d [9:0] $end
$var wire 1 C" en $end
$var wire 1 ] r $end
$var reg 10 D" q [9:0] $end
$upscope $end
$scope module control_n_rows_r $end
$var wire 1 , clk $end
$var wire 10 E" d [9:0] $end
$var wire 1 F" en $end
$var wire 1 ] r $end
$var reg 10 G" q [9:0] $end
$upscope $end
$scope module row_counter_r $end
$var wire 1 , clk $end
$var wire 10 H" d [9:0] $end
$var wire 1 e en $end
$var wire 1 ] r $end
$var reg 10 I" q [9:0] $end
$upscope $end
$scope module state_r $end
$var wire 1 , clk $end
$var wire 4 J" d [3:0] $end
$var wire 1 ] r $end
$var reg 4 K" q [3:0] $end
$upscope $end
$upscope $end
$scope module read_transform $end
$var wire 1 , clk $end
$var wire 32 L" mem2srt_read_data [31:0] $end
$var wire 1 ] reset $end
$var wire 32 M" sctl2srt_read_addr [31:0] $end
$var wire 32 N" transformed_read_data [31:0] $end
$var wire 32 O" srt2srow_read_data [31:0] $end
$var wire 64 P" srt2mem_read_addr [63:0] $end
$var wire 1 Q" read_transform $end
$scope begin flip_endian_read_data[0] $end
$upscope $end
$scope begin flip_endian_read_data[1] $end
$upscope $end
$scope begin flip_endian_read_data[2] $end
$upscope $end
$scope begin flip_endian_read_data[3] $end
$upscope $end
$scope begin transform_read_address[0] $end
$upscope $end
$scope begin transform_read_address[1] $end
$upscope $end
$scope begin unpack_read_data[0] $end
$upscope $end
$scope begin unpack_read_data[1] $end
$upscope $end
$scope module read_transform_r $end
$var wire 1 , clk $end
$var wire 1 R" d $end
$var wire 1 ] r $end
$var reg 1 Q" q $end
$upscope $end
$upscope $end
$scope module row_reg $end
$var wire 1 , clk $end
$var wire 1 e go $end
$var wire 1 ] reset $end
$var wire 2 S" sctl2srow_row_op [1:0] $end
$var wire 32 T" srow2sacc_row1_data [31:0] $end
$var wire 32 U" srow2sacc_row2_data [31:0] $end
$var wire 32 V" srow2sacc_row3_data [31:0] $end
$var wire 32 W" srt2srow_read_data [31:0] $end
$var wire 32 X" row3 [31:0] $end
$var wire 32 Y" row2 [31:0] $end
$var wire 32 Z" row1 [31:0] $end
$var reg 32 [" row1_next [31:0] $end
$var reg 32 \" row2_next [31:0] $end
$var reg 32 ]" row3_next [31:0] $end
$scope module row1_r $end
$var wire 1 , clk $end
$var wire 32 ^" d [31:0] $end
$var wire 1 e en $end
$var wire 1 ] r $end
$var reg 32 _" q [31:0] $end
$upscope $end
$scope module row2_r $end
$var wire 1 , clk $end
$var wire 32 `" d [31:0] $end
$var wire 1 e en $end
$var wire 1 ] r $end
$var reg 32 a" q [31:0] $end
$upscope $end
$scope module row3_r $end
$var wire 1 , clk $end
$var wire 32 b" d [31:0] $end
$var wire 1 e en $end
$var wire 1 ] r $end
$var reg 32 c" q [31:0] $end
$upscope $end
$upscope $end
$scope module write_transform $end
$var wire 16 d" sacc2swt_write_data [15:0] $end
$var wire 32 e" sctl2swt_write_addr [31:0] $end
$var wire 2 f" sctl2swt_write_en [1:0] $end
$var wire 32 g" swt2mem_write_data [31:0] $end
$var wire 1 h" write_transform $end
$var wire 32 i" transformed_write_data [31:0] $end
$var wire 4 j" swt2mem_write_en [3:0] $end
$var wire 64 k" swt2mem_write_addr [63:0] $end
$scope begin unpack_write_data[0] $end
$upscope $end
$scope begin unpack_write_data[1] $end
$upscope $end
$scope begin write_transform_address_output[0] $end
$upscope $end
$scope begin write_transform_address_output[1] $end
$upscope $end
$scope begin write_transform_en_output[0] $end
$upscope $end
$scope begin write_transform_en_output[1] $end
$upscope $end
$scope begin write_transform_en_output[2] $end
$upscope $end
$scope begin write_transform_en_output[3] $end
$upscope $end
$scope begin write_transform_internal[0] $end
$upscope $end
$scope begin write_transform_internal[1] $end
$upscope $end
$upscope $end
$upscope $end
$upscope $end
$upscope $end
$enddefinitions $end
#0
$dumpvars
bx k"
bx j"
bx i"
xh"
bx g"
b0 f"
bx e"
bx d"
bx c"
bx b"
bx a"
bx `"
bx _"
bx ^"
bx ]"
bx \"
bx ["
bx Z"
bx Y"
bx X"
bx W"
bx V"
bx U"
bx T"
bx S"
xR"
xQ"
bx P"
bx O"
bx N"
bx M"
bx L"
bx K"
bx J"
bx I"
bx H"
bx G"
xF"
b10 E"
bx D"
xC"
b10 B"
bx A"
bx @"
bx ?"
bx >"
bx ="
bx <"
bx ;"
bx :"
bx 9"
bx 8"
bx 7"
x6"
bx 5"
bx 4"
bx 3"
bx 2"
bx 1"
bx 0"
b0 /"
bx ."
b0xxxxxx -"
b0 ,"
bx +"
b10 *"
b10 )"
bx ("
bx '"
bx &"
b0 %"
b0 $"
b0 #"
bx ""
bx !"
bx ~
bx }
bx |
bx {
bx z
bx y
bx x
bx w
bx v
bx u
b0 t
bx s
bx r
bx q
bx p
bx o
bx n
bx m
bx l
b0xxxxxx k
b10 j
b10 i
bx h
0g
bx f
xe
b10 d
b10 c
b0xxxxxx b
bx a
bx `
bx _
b0 ^
1]
bx \
b0 [
bx Z
b0 Y
bx X
0W
b0 V
b0 U
bx T
bx S
bx R
bx Q
bx P
bx O
bx N
bx M
bx L
0K
b0 J
bx I
bx H
bx G
0F
b0 E
bx D
bx C
b0 B
b1 A
b1 @
b0 ?
b1 >
bx =
bx <
b1 ;
b0 :
bx 9
08
b0 7
b1110100011001010111001101110100011100110010111101100010011000010111001101101001011000110010111101101111011000100111010101100110010111110111010001100101011100110111010000101110011010000110010101111000 6
b0 5
b1000000000000000 4
b10011100010000 3
bx 2
b111010001100101011100110111010001110011001011110110001001100001011100110110100101100011001011110110100101100010011101010110011000101110011010000110010101111000 1
b1110 0
b1110 /
b111010001100101011100110111010001110011001011110110001001100001011100110110100101100011001011110111001101110100011100100110010101100001011011010111011101100001011101100110010100101110011101100110001101100100 .
b0 -
0,
bx +
bx *
bx )
bx (
bx '
b0xxxxxx &
bx %
bx $
bx #
b0 "
b0 !
$end
#5000
b0 N
b0 S
b0 M
b0 R
b0 Q
b0 O
b0 $
b0 `
b0 m
b0 g"
b0 i"
b0 C
b0 D
b0 H
b0 I
b0 #
b0 _
b0 l
b0 j"
b0 %
b0 a
b0 n
b0 k"
b0 (
b0 f
b0 o
b0 P"
b0 5"
b0 <"
b0 ;"
b0 J"
06"
b0 7"
b0 >"
b0 w
b0 &"
b0 S"
b0 :"
b0 9"
b0 H"
b0 8"
b0 @"
0R"
0h"
b0 ]"
b0 b"
b0 \"
b0 `"
b0 ["
b0 ^"
b0 x
b0 !"
b0 ""
b0 d"
0e
0Q"
1C"
1F"
b0 &
b0 b
b0 k
b0 -"
b0 +"
b0 K"
b0 0"
b0 G"
b0 1"
b0 D"
b0 ."
b0 I"
b0 2"
b0 A"
b0 v
b0 '"
b0 M"
b0 4"
b0 ="
b0 u
b0 ("
b0 e"
b0 3"
b0 ?"
b0 y
b0 s
b0 ~
b0 T"
b0 Z"
b0 _"
b0 z
b0 r
b0 }
b0 U"
b0 Y"
b0 a"
b0 {
b0 q
b0 |
b0 V"
b0 X"
b0 c"
1,
#10000
0,
#15000
b0 p
b0 O"
b0 W"
b0 N"
b0 '
b0 \
b0 h
b0 L"
b0 L
b0 *
b0 G
1,
#20000
0]
0,
18
#25000
b10 0"
b10 G"
b10 1"
b10 D"
1,
#30000
b10000 c
b10000 j
b10000 *"
b10000 E"
b10000 d
b10000 i
b10000 )"
b10000 B"
1g
0,
b10011100001111 -
b1110000000111001 :
b1110000000111001 Y
#35000
b1 ;"
b1 J"
b10000 1"
b10000 D"
b10000 0"
b10000 G"
1e
1,
#40000
0,
b10011100001110 -
#45000
b1111 ;"
b1111 J"
0C"
0F"
b100 &
b100 b
b100 k
b100 -"
b1 +"
b1 K"
1,
#50000
0,
b10011100001101 -
#55000
b111110 &
b111110 b
b111110 k
b111110 -"
b1111 +"
b1111 K"
1,
#60000
b10 c
b10 j
b10 *"
b10 E"
b10 d
b10 i
b10 )"
b10 B"
0g
0,
b0 <
b10000000000000000000000000000011 =
b0 :
b0 Y
#65000
0e
1,
#70000
b1 M
b1 Q
0,
b1 7
b1 <
#75000
1,
#80000
b10 M
b10 Q
0,
b10 7
b10 <
#85000
1,
#90000
b11 M
b11 Q
0,
b11 7
b11 <
#95000
1,
#100000
b100 M
b100 Q
0,
b100 7
b100 <
#105000
1,
#110000
b101 M
b101 Q
0,
b101 7
b101 <
#115000
1,
#120000
b110 M
b110 Q
0,
b110 7
b110 <
#125000
1,
#130000
b111 M
b111 Q
0,
b111 7
b111 <
#135000
1,
#140000
b1000 M
b1000 Q
0,
b1000 7
b1000 <
#145000
1,
#150000
b1001 M
b1001 Q
0,
b1001 7
b1001 <
#155000
1,
#160000
b1010 M
b1010 Q
0,
b1010 7
b1010 <
#165000
1,
#170000
b1011 M
b1011 Q
0,
b1011 7
b1011 <
#175000
1,
#180000
b1100 M
b1100 Q
0,
b1100 7
b1100 <
#185000
1,
#190000
b1101 M
b1101 Q
0,
b1101 7
b1101 <
#195000
1,
#200000
b1110 M
b1110 Q
0,
b1110 7
b1110 <
#205000
1,
#210000
b1111 M
b1111 Q
0,
b1111 7
b1111 <
#215000
1,
#220000
b10000 M
b10000 Q
0,
b10000 7
b10000 <
#225000
1,
#230000
b10001 M
b10001 Q
0,
b10001 7
b10001 <
#235000
1,
#240000
b10010 M
b10010 Q
0,
b10010 7
b10010 <
#245000
1,
#250000
b10011 M
b10011 Q
0,
b10011 7
b10011 <
#255000
1,
#260000
b10100 M
b10100 Q
0,
b10100 7
b10100 <
#265000
1,
#270000
b10101 M
b10101 Q
0,
b10101 7
b10101 <
#275000
1,
#280000
b10110 M
b10110 Q
0,
b10110 7
b10110 <
#285000
1,
#290000
b10111 M
b10111 Q
0,
b10111 7
b10111 <
#295000
1,
#300000
b11000 M
b11000 Q
0,
b11000 7
b11000 <
#305000
1,
#310000
b11001 M
b11001 Q
0,
b11001 7
b11001 <
#315000
1,
#320000
b11010 M
b11010 Q
0,
b11010 7
b11010 <
#325000
1,
#330000
b11011 M
b11011 Q
0,
b11011 7
b11011 <
#335000
1,
#340000
b11100 M
b11100 Q
0,
b11100 7
b11100 <
#345000
1,
#350000
b11101 M
b11101 Q
0,
b11101 7
b11101 <
#355000
1,
#360000
b11110 M
b11110 Q
0,
b11110 7
b11110 <
#365000
1,
#370000
b11111 M
b11111 Q
0,
b11111 7
b11111 <
#375000
1,
#380000
b100000 M
b100000 Q
0,
b100000 7
b100000 <
#385000
1,
#390000
b100001 M
b100001 Q
0,
b100001 7
b100001 <
#395000
1,
#400000
b100010 M
b100010 Q
0,
b100010 7
b100010 <
#405000
1,
#410000
b100011 M
b100011 Q
0,
b100011 7
b100011 <
#415000
1,
#420000
b100100 M
b100100 Q
0,
b100100 7
b100100 <
#425000
1,
#430000
b100101 M
b100101 Q
0,
b100101 7
b100101 <
#435000
1,
#440000
b100110 M
b100110 Q
0,
b100110 7
b100110 <
#445000
1,
#450000
b100111 M
b100111 Q
0,
b100111 7
b100111 <
#455000
1,
#460000
b101000 M
b101000 Q
0,
b101000 7
b101000 <
#465000
1,
#470000
b101001 M
b101001 Q
0,
b101001 7
b101001 <
#475000
1,
#480000
b101010 M
b101010 Q
0,
b101010 7
b101010 <
#485000
1,
#490000
b101011 M
b101011 Q
0,
b101011 7
b101011 <
#495000
1,
#500000
b101100 M
b101100 Q
0,
b101100 7
b101100 <
#505000
1,
#510000
b101101 M
b101101 Q
0,
b101101 7
b101101 <
#515000
1,
#520000
b101110 M
b101110 Q
0,
b101110 7
b101110 <
#525000
1,
#530000
b101111 M
b101111 Q
0,
b101111 7
b101111 <
#535000
1,
#540000
b110000 M
b110000 Q
0,
b110000 7
b110000 <
#545000
1,
#550000
b110001 M
b110001 Q
0,
b110001 7
b110001 <
#555000
1,
#560000
b110010 M
b110010 Q
0,
b110010 7
b110010 <
#565000
1,
#570000
b110011 M
b110011 Q
0,
b110011 7
b110011 <
#575000
1,
#580000
b110100 M
b110100 Q
0,
b110100 7
b110100 <
#585000
1,
#590000
b110101 M
b110101 Q
0,
b110101 7
b110101 <
#595000
1,
#600000
b110110 M
b110110 Q
0,
b110110 7
b110110 <
#605000
1,
#610000
b110111 M
b110111 Q
0,
b110111 7
b110111 <
#615000
1,
#620000
b111000 M
b111000 Q
0,
b111000 7
b111000 <
#625000
1,
#630000
b111001 M
b111001 Q
0,
b111001 7
b111001 <
#635000
1,
#640000
b111010 M
b111010 Q
0,
b111010 7
b111010 <
#645000
1,
#650000
b111011 M
b111011 Q
0,
b111011 7
b111011 <
#655000
1,
#660000
b111100 M
b111100 Q
0,
b111100 7
b111100 <
#665000
1,
#670000
b111101 M
b111101 Q
0,
b111101 7
b111101 <
#675000
1,
#680000
b111110 M
b111110 Q
0,
b111110 7
b111110 <
#685000
1,
#690000
b111111 M
b111111 Q
0,
b111111 7
b111111 <
#695000
1,
#700000
b1000000 M
b1000000 Q
0,
b1000000 7
b1000000 <
#705000
1,
#710000
b1000001 M
b1000001 Q
0,
b1000001 7
b1000001 <
#715000
1,
#720000
b1000010 M
b1000010 Q
0,
b1000010 7
b1000010 <
#725000
1,
#730000
b1000011 M
b1000011 Q
0,
b1000011 7
b1000011 <
#735000
1,
#740000
b1000100 M
b1000100 Q
0,
b1000100 7
b1000100 <
#745000
1,
#750000
b1000101 M
b1000101 Q
0,
b1000101 7
b1000101 <
#755000
1,
#760000
b1000110 M
b1000110 Q
0,
b1000110 7
b1000110 <
#765000
1,
#770000
b1000111 M
b1000111 Q
0,
b1000111 7
b1000111 <
#775000
1,
#780000
b1001000 M
b1001000 Q
0,
b1001000 7
b1001000 <
#785000
1,
#790000
b1001001 M
b1001001 Q
0,
b1001001 7
b1001001 <
#795000
1,
#800000
b1001010 M
b1001010 Q
0,
b1001010 7
b1001010 <
#805000
1,
#810000
b1001011 M
b1001011 Q
0,
b1001011 7
b1001011 <
#815000
1,
#820000
b1001100 M
b1001100 Q
0,
b1001100 7
b1001100 <
#825000
1,
#830000
b1001101 M
b1001101 Q
0,
b1001101 7
b1001101 <
#835000
1,
#840000
b1001110 M
b1001110 Q
0,
b1001110 7
b1001110 <
#845000
1,
#850000
b1001111 M
b1001111 Q
0,
b1001111 7
b1001111 <
#855000
1,
#860000
b1010000 M
b1010000 Q
0,
b1010000 7
b1010000 <
#865000
1,
#870000
b1010001 M
b1010001 Q
0,
b1010001 7
b1010001 <
#875000
1,
#880000
b1010010 M
b1010010 Q
0,
b1010010 7
b1010010 <
#885000
1,
#890000
b1010011 M
b1010011 Q
0,
b1010011 7
b1010011 <
#895000
1,
#900000
b1010100 M
b1010100 Q
0,
b1010100 7
b1010100 <
#905000
1,
#910000
b1010101 M
b1010101 Q
0,
b1010101 7
b1010101 <
#915000
1,
#920000
b1010110 M
b1010110 Q
0,
b1010110 7
b1010110 <
#925000
1,
#930000
b1010111 M
b1010111 Q
0,
b1010111 7
b1010111 <
#935000
1,
#940000
b1011000 M
b1011000 Q
0,
b1011000 7
b1011000 <
#945000
1,
#950000
b1011001 M
b1011001 Q
0,
b1011001 7
b1011001 <
#955000
1,
#960000
b1011010 M
b1011010 Q
0,
b1011010 7
b1011010 <
#965000
1,
#970000
b1011011 M
b1011011 Q
0,
b1011011 7
b1011011 <
#975000
1,
#980000
b1011100 M
b1011100 Q
0,
b1011100 7
b1011100 <
#985000
1,
#990000
b1011101 M
b1011101 Q
0,
b1011101 7
b1011101 <
#995000
1,
#1000000
b1011110 M
b1011110 Q
0,
b1011110 7
b1011110 <
#1005000
1,
#1010000
b1011111 M
b1011111 Q
0,
b1011111 7
b1011111 <
#1015000
1,
#1020000
b1100000 M
b1100000 Q
0,
b1100000 7
b1100000 <
#1025000
1,
#1030000
b1100001 M
b1100001 Q
0,
b1100001 7
b1100001 <
#1035000
1,
#1040000
b1100010 M
b1100010 Q
0,
b1100010 7
b1100010 <
#1045000
1,
#1050000
b1100011 M
b1100011 Q
0,
b1100011 7
b1100011 <
#1055000
1,
#1060000
b1100100 M
b1100100 Q
0,
b1100100 7
b1100100 <
#1065000
1,
#1070000
b1100101 M
b1100101 Q
0,
b1100101 7
b1100101 <
#1075000
1,
#1080000
b1100110 M
b1100110 Q
0,
b1100110 7
b1100110 <
#1085000
1,
#1090000
b1100111 M
b1100111 Q
0,
b1100111 7
b1100111 <
#1095000
1,
#1100000
b1101000 M
b1101000 Q
0,
b1101000 7
b1101000 <
#1105000
1,
#1110000
b1101001 M
b1101001 Q
0,
b1101001 7
b1101001 <
#1115000
1,
#1120000
b1101010 M
b1101010 Q
0,
b1101010 7
b1101010 <
#1125000
1,
#1130000
b1101011 M
b1101011 Q
0,
b1101011 7
b1101011 <
#1135000
1,
#1140000
b1101100 M
b1101100 Q
0,
b1101100 7
b1101100 <
#1145000
1,
#1150000
b1101101 M
b1101101 Q
0,
b1101101 7
b1101101 <
#1155000
1,
#1160000
b1101110 M
b1101110 Q
0,
b1101110 7
b1101110 <
#1165000
1,
#1170000
b1101111 M
b1101111 Q
0,
b1101111 7
b1101111 <
#1175000
1,
#1180000
b1110000 M
b1110000 Q
0,
b1110000 7
b1110000 <
#1185000
1,
#1190000
b1110001 M
b1110001 Q
0,
b1110001 7
b1110001 <
#1195000
1,
#1200000
b1110010 M
b1110010 Q
0,
b1110010 7
b1110010 <
#1205000
1,
#1210000
b1110011 M
b1110011 Q
0,
b1110011 7
b1110011 <
#1215000
1,
#1220000
b1110100 M
b1110100 Q
0,
b1110100 7
b1110100 <
#1225000
1,
#1230000
b1110101 M
b1110101 Q
0,
b1110101 7
b1110101 <
#1235000
1,
#1240000
b1110110 M
b1110110 Q
0,
b1110110 7
b1110110 <
#1245000
1,
#1250000
b1110111 M
b1110111 Q
0,
b1110111 7
b1110111 <
#1255000
1,
#1260000
b1111000 M
b1111000 Q
0,
b1111000 7
b1111000 <
#1265000
1,
#1270000
b1111001 M
b1111001 Q
0,
b1111001 7
b1111001 <
#1275000
1,
#1280000
b1111010 M
b1111010 Q
0,
b1111010 7
b1111010 <
#1285000
1,
#1290000
b1111011 M
b1111011 Q
0,
b1111011 7
b1111011 <
#1295000
1,
#1300000
b1111100 M
b1111100 Q
0,
b1111100 7
b1111100 <
#1305000
1,
#1310000
b1111101 M
b1111101 Q
0,
b1111101 7
b1111101 <
#1315000
1,
#1320000
b1111110 M
b1111110 Q
0,
b1111110 7
b1111110 <
#1325000
1,
#1330000
b1111111 M
b1111111 Q
0,
b1111111 7
b1111111 <
#1335000
1,
#1340000
b10000000 M
b10000000 Q
0,
b10000000 7
b10000000 <
#1345000
1,
#1350000
b10000001 M
b10000001 Q
0,
b10000001 7
b10000001 <
#1355000
1,
#1360000
b10000010 M
b10000010 Q
0,
b10000010 7
b10000010 <
#1365000
1,
#1370000
b10000011 M
b10000011 Q
0,
b10000011 7
b10000011 <
#1375000
1,
#1380000
b10000100 M
b10000100 Q
0,
b10000100 7
b10000100 <
#1385000
1,
#1390000
b10000101 M
b10000101 Q
0,
b10000101 7
b10000101 <
#1395000
1,
#1400000
b10000110 M
b10000110 Q
0,
b10000110 7
b10000110 <
#1405000
1,
#1410000
b10000111 M
b10000111 Q
0,
b10000111 7
b10000111 <
#1415000
1,
#1420000
b10001000 M
b10001000 Q
0,
b10001000 7
b10001000 <
#1425000
1,
#1430000
b10001001 M
b10001001 Q
0,
b10001001 7
b10001001 <
#1435000
1,
#1440000
b10001010 M
b10001010 Q
0,
b10001010 7
b10001010 <
#1445000
1,
#1450000
b10001011 M
b10001011 Q
0,
b10001011 7
b10001011 <
#1455000
1,
#1460000
b10001100 M
b10001100 Q
0,
b10001100 7
b10001100 <
#1465000
1,
#1470000
b10001101 M
b10001101 Q
0,
b10001101 7
b10001101 <
#1475000
1,
#1480000
b10001110 M
b10001110 Q
0,
b10001110 7
b10001110 <
#1485000
1,
#1490000
b10001111 M
b10001111 Q
0,
b10001111 7
b10001111 <
#1495000
1,
#1500000
b10010000 M
b10010000 Q
0,
b10010000 7
b10010000 <
#1505000
1,
#1510000
b10010001 M
b10010001 Q
0,
b10010001 7
b10010001 <
#1515000
1,
#1520000
b10010010 M
b10010010 Q
0,
b10010010 7
b10010010 <
#1525000
1,
#1530000
b10010011 M
b10010011 Q
0,
b10010011 7
b10010011 <
#1535000
1,
#1540000
b10010100 M
b10010100 Q
0,
b10010100 7
b10010100 <
#1545000
1,
#1550000
b10010101 M
b10010101 Q
0,
b10010101 7
b10010101 <
#1555000
1,
#1560000
b10010110 M
b10010110 Q
0,
b10010110 7
b10010110 <
#1565000
1,
#1570000
b10010111 M
b10010111 Q
0,
b10010111 7
b10010111 <
#1575000
1,
#1580000
b10011000 M
b10011000 Q
0,
b10011000 7
b10011000 <
#1585000
1,
#1590000
b10011001 M
b10011001 Q
0,
b10011001 7
b10011001 <
#1595000
1,
#1600000
b10011010 M
b10011010 Q
0,
b10011010 7
b10011010 <
#1605000
1,
#1610000
b10011011 M
b10011011 Q
0,
b10011011 7
b10011011 <
#1615000
1,
#1620000
b10011100 M
b10011100 Q
0,
b10011100 7
b10011100 <
#1625000
1,
#1630000
b10011101 M
b10011101 Q
0,
b10011101 7
b10011101 <
#1635000
1,
#1640000
b10011110 M
b10011110 Q
0,
b10011110 7
b10011110 <
#1645000
1,
#1650000
b10011111 M
b10011111 Q
0,
b10011111 7
b10011111 <
#1655000
1,
#1660000
b10100000 M
b10100000 Q
0,
b10100000 7
b10100000 <
#1665000
1,
#1670000
b10100001 M
b10100001 Q
0,
b10100001 7
b10100001 <
#1675000
1,
#1680000
b10100010 M
b10100010 Q
0,
b10100010 7
b10100010 <
#1685000
1,
#1690000
b10100011 M
b10100011 Q
0,
b10100011 7
b10100011 <
#1695000
1,
#1700000
b10100100 M
b10100100 Q
0,
b10100100 7
b10100100 <
#1705000
1,
#1710000
b10100101 M
b10100101 Q
0,
b10100101 7
b10100101 <
#1715000
1,
#1720000
b10100110 M
b10100110 Q
0,
b10100110 7
b10100110 <
#1725000
1,
#1730000
b10100111 M
b10100111 Q
0,
b10100111 7
b10100111 <
#1735000
1,
#1740000
b10101000 M
b10101000 Q
0,
b10101000 7
b10101000 <
#1745000
1,
#1750000
b10101001 M
b10101001 Q
0,
b10101001 7
b10101001 <
#1755000
1,
